   1        0.3333300      0.3333300      0.0000000     2.00000         -9.90435     2.00000         -9.90434     0.00000         22.64002     0.00000         22.64031     0.00000         25.55725
   2        0.3333300      0.3333300      0.0200000     2.00000         -9.90434     2.00000         -9.90433     0.00000         22.64753     0.00000         22.64782     0.00000         25.56020
   3        0.3333300      0.3333300      0.0400000     2.00000         -9.90430     2.00000         -9.90429     0.00000         22.67003     0.00000         22.67032     0.00000         25.56905
   4        0.3333300      0.3333300      0.0600000     2.00000         -9.90423     2.00000         -9.90422     0.00000         22.70741     0.00000         22.70770     0.00000         25.58378
   5        0.3333300      0.3333300      0.0800000     2.00000         -9.90413     2.00000         -9.90412     0.00000         22.75948     0.00000         22.75977     0.00000         25.60432
   6        0.3333300      0.3333300      0.1000000     2.00000         -9.90401     2.00000         -9.90400     0.00000         22.82597     0.00000         22.82626     0.00000         25.63064
   7        0.3333300      0.3333300      0.1200000     2.00000         -9.90387     2.00000         -9.90386     0.00000         22.90651     0.00000         22.90681     0.00000         25.66264
   8        0.3333300      0.3333300      0.1400000     2.00000         -9.90371     2.00000         -9.90370     0.00000         23.00067     0.00000         23.00096     0.00000         25.70023
   9        0.3333300      0.3333300      0.1600000     2.00000         -9.90353     2.00000         -9.90352     0.00000         23.10785     0.00000         23.10815     0.00000         25.74330
  10        0.3333300      0.3333300      0.1800000     2.00000         -9.90333     2.00000         -9.90332     0.00000         23.22738     0.00000         23.22768     0.00000         25.79171
  11        0.3333300      0.3333300      0.2000000     2.00000         -9.90312     2.00000         -9.90311     0.00000         23.35842     0.00000         23.35872     0.00000         25.84531
  12        0.3333300      0.3333300      0.2200000     2.00000         -9.90290     2.00000         -9.90290     0.00000         23.49996     0.00000         23.50026     0.00000         25.90395
  13        0.3333300      0.3333300      0.2400000     2.00000         -9.90268     2.00000         -9.90268     0.00000         23.65081     0.00000         23.65110     0.00000         25.96742
  14        0.3333300      0.3333300      0.2600000     2.00000         -9.90246     2.00000         -9.90245     0.00000         23.80954     0.00000         23.80983     0.00000         26.03554
  15        0.3333300      0.3333300      0.2800000     2.00000         -9.90224     2.00000         -9.90223     0.00000         23.97447     0.00000         23.97475     0.00000         26.10808
  16        0.3333300      0.3333300      0.3000000     2.00000         -9.90202     2.00000         -9.90202     0.00000         24.14358     0.00000         24.14385     0.00000         26.18480
  17        0.3333300      0.3333300      0.3200000     2.00000         -9.90181     2.00000         -9.90181     0.00000         24.31450     0.00000         24.31477     0.00000         26.26546
  18        0.3333300      0.3333300      0.3400000     2.00000         -9.90162     2.00000         -9.90161     0.00000         24.48446     0.00000         24.48472     0.00000         26.34978
  19        0.3333300      0.3333300      0.3600000     2.00000         -9.90144     2.00000         -9.90143     0.00000         24.65019     0.00000         24.65043     0.00000         26.43746
  20        0.3333300      0.3333300      0.3800000     2.00000         -9.90127     2.00000         -9.90127     0.00000         24.80792     0.00000         24.80815     0.00000         26.52822
  21        0.3333300      0.3333300      0.4000000     2.00000         -9.90113     2.00000         -9.90113     0.00000         24.95341     0.00000         24.95361     0.00000         26.62174
  22        0.3333300      0.3333300      0.4200000     2.00000         -9.90101     2.00000         -9.90101     0.00000         25.08201     0.00000         25.08218     0.00000         26.71767
  23        0.3333300      0.3333300      0.4400000     2.00000         -9.90091     2.00000         -9.90091     0.00000         25.18886     0.00000         25.18900     0.00000         26.81567
  24        0.3333300      0.3333300      0.4600000     2.00000         -9.90084     2.00000         -9.90084     0.00000         25.26931     0.00000         25.26941     0.00000         26.91538
  25        0.3333300      0.3333300      0.4800000     2.00000         -9.90080     2.00000         -9.90080     0.00000         25.31940     0.00000         25.31945     0.00000         27.01643
  26        0.3333300      0.3333300      0.5000000     2.00000         -9.90079     2.00000         -9.90079     0.00000         25.33644     0.00000         25.33644     0.00000         27.11843
