<?xml version="1.0" encoding="UTF-8" standalone="no"?>
<!-- Created with Inkscape (http://www.inkscape.org/) -->

<svg
   xmlns:dc="http://purl.org/dc/elements/1.1/"
   xmlns:cc="http://creativecommons.org/ns#"
   xmlns:rdf="http://www.w3.org/1999/02/22-rdf-syntax-ns#"
   xmlns:svg="http://www.w3.org/2000/svg"
   xmlns="http://www.w3.org/2000/svg"
   xmlns:sodipodi="http://sodipodi.sourceforge.net/DTD/sodipodi-0.dtd"
   xmlns:inkscape="http://www.inkscape.org/namespaces/inkscape"
   width="82.172028mm"
   height="82.172028mm"
   viewBox="0 0 82.172028 82.172028"
   version="1.1"
   id="svg8"
   inkscape:version="0.92.2 5c3e80d, 2017-08-06"
   sodipodi:docname="cg.svg"
   inkscape:export-filename="/Users/sebastian/Desktop/cg.png"
   inkscape:export-xdpi="96"
   inkscape:export-ydpi="96">
  <defs
     id="defs2" />
  <sodipodi:namedview
     id="base"
     pagecolor="#ffffff"
     bordercolor="#666666"
     borderopacity="1.0"
     inkscape:pageopacity="0.0"
     inkscape:pageshadow="2"
     inkscape:zoom="1"
     inkscape:cx="131.32415"
     inkscape:cy="144.56016"
     inkscape:document-units="mm"
     inkscape:current-layer="layer1"
     showgrid="false"
     inkscape:window-width="1440"
     inkscape:window-height="800"
     inkscape:window-x="0"
     inkscape:window-y="1"
     inkscape:window-maximized="1"
     fit-margin-top="0"
     fit-margin-left="0"
     fit-margin-right="0"
     fit-margin-bottom="0" />
  <metadata
     id="metadata5">
    <rdf:RDF>
      <cc:Work
         rdf:about="">
        <dc:format>image/svg+xml</dc:format>
        <dc:type
           rdf:resource="http://purl.org/dc/dcmitype/StillImage" />
        <dc:title></dc:title>
      </cc:Work>
    </rdf:RDF>
  </metadata>
  <g
     inkscape:label="Layer 1"
     inkscape:groupmode="layer"
     id="layer1"
     transform="translate(-24.681845,-63.14613)">
    <rect
       style="fill:#c9c9c9;fill-opacity:0.98536587;stroke:#ffffff;stroke-width:0.5291667;stroke-miterlimit:4;stroke-dasharray:none;stroke-opacity:1"
       id="rect815"
       width="81.64286"
       height="81.64286"
       x="24.946428"
       y="63.410713" />
    <rect
       style="fill:#c5e0d8;fill-opacity:1;stroke:none;stroke-width:0.02407708;stroke-miterlimit:4;stroke-dasharray:none;stroke-opacity:1"
       id="rect851"
       width="50.535416"
       height="62.17709"
       x="40.500153"
       y="73.1436"
       ry="8.4666662" />
    <circle
       style="fill:#444545;fill-opacity:1;stroke:none;stroke-width:0.02407708;stroke-miterlimit:4;stroke-dasharray:none;stroke-opacity:1"
       id="path853"
       cx="49.02351"
       cy="85.786903"
       r="2.9104166" />
    <circle
       r="2.9104166"
       cy="97.163994"
       cx="48.758926"
       id="circle875"
       style="fill:#444545;fill-opacity:1;stroke:none;stroke-width:0.02407708;stroke-miterlimit:4;stroke-dasharray:none;stroke-opacity:1" />
    <circle
       style="fill:#444545;fill-opacity:1;stroke:none;stroke-width:0.02407708;stroke-miterlimit:4;stroke-dasharray:none;stroke-opacity:1"
       id="circle877"
       cx="48.494343"
       cy="108.54109"
       r="2.9104166" />
    <rect
       style="fill:#444545;fill-opacity:1;stroke:none;stroke-width:0.02407708;stroke-miterlimit:4;stroke-dasharray:none;stroke-opacity:1"
       id="rect879"
       width="27.252085"
       height="3.7041676"
       x="55.373512"
       y="83.934822"
       ry="0" />
    <rect
       ry="0"
       y="95.311913"
       x="55.373512"
       height="3.7041676"
       width="27.252085"
       id="rect881"
       style="fill:#444545;fill-opacity:1;stroke:none;stroke-width:0.02407708;stroke-miterlimit:4;stroke-dasharray:none;stroke-opacity:1" />
    <rect
       style="fill:#444545;fill-opacity:1;stroke:none;stroke-width:0.02407708;stroke-miterlimit:4;stroke-dasharray:none;stroke-opacity:1"
       id="rect883"
       width="27.252085"
       height="3.7041676"
       x="55.373512"
       y="106.68901"
       ry="0" />
  </g>
</svg>
