================================================================================
| EXCITING NITROGEN-13 started                                                 =
| version hash id: a73bba6f2eed5eb4024a9cc4f72599c3faa5cd12                    =
|                                                                              =
|                                                                              =
| Date (DD-MM-YYYY) : 07-11-2019                                               =
| Time (hh:mm:ss)   : 15:49:41                                                 =
|                                                                              =
| All units are atomic (Hartree, Bohr, etc.)                                   =
================================================================================
 
********************************************************************************
* Structural optimisation starting from atomic densities                       *
********************************************************************************
 
++++++++++++++++++++++++++++++++++++++++++++++++++++++++++++++++++++++++++++++++
+ Starting initialization                                                      +
++++++++++++++++++++++++++++++++++++++++++++++++++++++++++++++++++++++++++++++++
 
 Lattice vectors (cartesian) :
      3.3595000000      3.3595000000      0.0000000000
      3.3595000000      0.0000000000      3.3595000000
      0.0000000000      3.3595000000      3.3595000000
 
 Reciprocal lattice vectors (cartesian) :
      0.9351369709      0.9351369709     -0.9351369709
      0.9351369709     -0.9351369709      0.9351369709
     -0.9351369709      0.9351369709      0.9351369709
 
 Unit cell volume                           :      75.8322482398
 Brillouin zone volume                      :       3.2710386307
 
 Species :    1 (C)
     parameters loaded from                 :    C.xml
     name                                   :    carbon
     nuclear charge                         :      -6.00000000
     electronic charge                      :       6.00000000
     atomic mass                            :   21894.16673000
     muffin-tin radius                      :       1.20000000
     # of radial points in muffin-tin       :     250
 
     atomic positions (lattice) :
       1 :   0.00000000  0.00000000  0.00000000
       2 :   0.30000000  0.30000000  0.30000000
 
 Total number of atoms per unit cell        :       2
 
 Spin treatment                             :    spin-unpolarised
 
 Number of Bravais lattice symmetries       :      48
 Number of crystal symmetries               :      12
 
 k-point grid                               :       6    6    6
 Total number of k-points                   :      32
 k-point set is reduced with crystal symmetries
 
 R^MT_min * |G+k|_max (rgkmax)              :       7.00000000
 Species with R^MT_min                      :       1 (C)
 Maximum |G+k| for APW functions            :       5.83333333
 Maximum |G| for potential and density      :      12.00000000
 
 G-vector grid sizes                        :      20    20    20
 Total number of G-vectors                  :    2229
 
 Maximum angular momentum used for
     APW functions                          :       8
     computing H and O matrix elements      :       8
     potential and density                  :       8
     inner part of muffin-tin               :       2
 
 Total nuclear charge                       :     -12.00000000
 Total electronic charge                    :      12.00000000
 Total core charge                          :       4.00000000
 Total valence charge                       :       8.00000000
 
 Number of empty states                     :       5
 Total number of valence states             :      10
 
 Maximum Hamiltonian size                   :     276
 Maximum number of plane-waves              :     268
 Total number of local-orbitals             :       8
 
 Exchange-correlation type                  :      22
     PBEsol, Phys. Rev. Lett. 100, 136406 (2008)
     Generalised gradient approximation (GGA)
 
 Smearing scheme                            :    Gaussian
 Smearing width                             :       0.00100000
 
 Using multisecant Broyden potential mixing
 
++++++++++++++++++++++++++++++++++++++++++++++++++++++++++++++++++++++++++++++++
+ Ending initialization                                                        +
++++++++++++++++++++++++++++++++++++++++++++++++++++++++++++++++++++++++++++++++
 
********************************************************************************
* Groundstate module started                                                   *
********************************************************************************
 Output level for this task is set to normal
 
++++++++++++++++++++++++++++++++++++++++++++++++++++++++++++++++++++++++++++++++
+ Self-consistent loop started                                                 +
++++++++++++++++++++++++++++++++++++++++++++++++++++++++++++++++++++++++++++++++
 Density and potential initialised from atomic data
 
 
++++++++++++++++++++++++++++++++++++++++++++++++++++++++++++++++++++++++++++++++
+ SCF iteration number :    1                                                  +
++++++++++++++++++++++++++++++++++++++++++++++++++++++++++++++++++++++++++++++++
 Total energy                               :       -76.84599670
 _______________________________________________________________
 Fermi energy                               :         0.51697875
 Kinetic energy                             :        75.11517516
 Coulomb energy                             :      -141.36353951
 Exchange energy                            :       -10.09765021
 Correlation energy                         :        -0.49998215
 
 DOS at Fermi energy (states/Ha/cell)       :         0.00000000
 
 Electron charges :
     core                                   :         4.00000000
     core leakage                           :         0.00132332
     valence                                :         8.00000000
     interstitial                           :         4.65028859
     charge in muffin-tin spheres :
                  atom     1     C          :         3.67485571
                  atom     2     C          :         3.67485571
     total charge in muffin-tins            :         7.34971141
     total charge                           :        12.00000000
 
 Estimated fundamental gap                  :         0.05750821
        valence-band maximum at    1      0.0000  0.0000  0.0000
     conduction-band minimum at    9      0.8333  0.1667  0.0000
 
 Wall time (seconds)                        :         2.13
 
++++++++++++++++++++++++++++++++++++++++++++++++++++++++++++++++++++++++++++++++
+ SCF iteration number :    2                                                  +
++++++++++++++++++++++++++++++++++++++++++++++++++++++++++++++++++++++++++++++++
 Total energy                               :       -76.50522684
 _______________________________________________________________
 Fermi energy                               :         0.52868139
 Kinetic energy                             :        75.30500268
 Coulomb energy                             :      -141.23041458
 Exchange energy                            :       -10.07866208
 Correlation energy                         :        -0.50115286
 
 DOS at Fermi energy (states/Ha/cell)       :         0.00000000
 
 Electron charges :
     core                                   :         4.00000000
     core leakage                           :         0.00133167
     valence                                :         8.00000000
     interstitial                           :         4.68834148
     charge in muffin-tin spheres :
                  atom     1     C          :         3.65582926
                  atom     2     C          :         3.65582926
     total charge in muffin-tins            :         7.31165852
     total charge                           :        12.00000000
 
 Estimated fundamental gap                  :         0.05793892
        valence-band maximum at    1      0.0000  0.0000  0.0000
     conduction-band minimum at    9      0.8333  0.1667  0.0000
 
 Wall time (seconds)                        :         3.52
 
 RMS change in effective potential (target) :   2.82184      ( 0.100000E-05)
 Absolute change in total energy   (target) :  0.340770      ( 0.100000E-05)
 Charge distance                   (target) :  0.780180E-02  ( 0.100000E-04)
 Abs. change in max-nonIBS-force   (target) :  0.681951E-01  ( 0.500000E-04)
 
++++++++++++++++++++++++++++++++++++++++++++++++++++++++++++++++++++++++++++++++
+ SCF iteration number :    3                                                  +
++++++++++++++++++++++++++++++++++++++++++++++++++++++++++++++++++++++++++++++++
 Total energy                               :       -76.25731407
 _______________________________________________________________
 Fermi energy                               :         0.53673757
 Kinetic energy                             :        75.44296399
 Coulomb energy                             :      -141.13356645
 Exchange energy                            :       -10.06466918
 Correlation energy                         :        -0.50204243
 
 DOS at Fermi energy (states/Ha/cell)       :         0.00000000
 
 Electron charges :
     core                                   :         4.00000000
     core leakage                           :         0.00133713
     valence                                :         8.00000000
     interstitial                           :         4.71694035
     charge in muffin-tin spheres :
                  atom     1     C          :         3.64152983
                  atom     2     C          :         3.64152983
     total charge in muffin-tins            :         7.28305965
     total charge                           :        12.00000000
 
 Estimated fundamental gap                  :         0.05722134
        valence-band maximum at    1      0.0000  0.0000  0.0000
     conduction-band minimum at   10      0.3333  0.3333  0.0000
 
 Wall time (seconds)                        :         5.05
 
 RMS change in effective potential (target) :   2.06930      ( 0.100000E-05)
 Absolute change in total energy   (target) :  0.247913      ( 0.100000E-05)
 Charge distance                   (target) :  0.591317E-02  ( 0.100000E-04)
 Abs. change in max-nonIBS-force   (target) :  0.207164E-01  ( 0.500000E-04)
 
++++++++++++++++++++++++++++++++++++++++++++++++++++++++++++++++++++++++++++++++
+ SCF iteration number :    4                                                  +
++++++++++++++++++++++++++++++++++++++++++++++++++++++++++++++++++++++++++++++++
 Total energy                               :       -76.00254904
 _______________________________________________________________
 Fermi energy                               :         0.54392343
 Kinetic energy                             :        75.59622068
 Coulomb energy                             :      -141.04745023
 Exchange energy                            :       -10.04803125
 Correlation energy                         :        -0.50328824
 
 DOS at Fermi energy (states/Ha/cell)       :         0.00000000
 
 Electron charges :
     core                                   :         4.00000000
     core leakage                           :         0.00133377
     valence                                :         8.00000000
     interstitial                           :         4.75526534
     charge in muffin-tin spheres :
                  atom     1     C          :         3.62236733
                  atom     2     C          :         3.62236733
     total charge in muffin-tins            :         7.24473466
     total charge                           :        12.00000000
 
 Estimated fundamental gap                  :         0.05146724
        valence-band maximum at    1      0.0000  0.0000  0.0000
     conduction-band minimum at   13      0.5000  0.5000  0.0000
 
 Wall time (seconds)                        :         6.43
 
 RMS change in effective potential (target) :  0.526494E-01  ( 0.100000E-05)
 Absolute change in total energy   (target) :  0.254765      ( 0.100000E-05)
 Charge distance                   (target) :  0.838051E-02  ( 0.100000E-04)
 Abs. change in max-nonIBS-force   (target) :  0.783142E-03  ( 0.500000E-04)
 
++++++++++++++++++++++++++++++++++++++++++++++++++++++++++++++++++++++++++++++++
+ SCF iteration number :    5                                                  +
++++++++++++++++++++++++++++++++++++++++++++++++++++++++++++++++++++++++++++++++
 Total energy                               :       -75.78623082
 _______________________________________________________________
 Fermi energy                               :         0.54876460
 Kinetic energy                             :        75.70419758
 Coulomb energy                             :      -140.94959726
 Exchange energy                            :       -10.03692764
 Correlation energy                         :        -0.50390351
 
 DOS at Fermi energy (states/Ha/cell)       :         0.00000000
 
 Electron charges :
     core                                   :         4.00000000
     core leakage                           :         0.00134399
     valence                                :         8.00000000
     interstitial                           :         4.77572312
     charge in muffin-tin spheres :
                  atom     1     C          :         3.61213844
                  atom     2     C          :         3.61213844
     total charge in muffin-tins            :         7.22427688
     total charge                           :        12.00000000
 
 Estimated fundamental gap                  :         0.04857672
        valence-band maximum at    1      0.0000  0.0000  0.0000
     conduction-band minimum at   13      0.5000  0.5000  0.0000
 
 Wall time (seconds)                        :         7.97
 
 RMS change in effective potential (target) :  0.282245E-01  ( 0.100000E-05)
 Absolute change in total energy   (target) :  0.216318      ( 0.100000E-05)
 Charge distance                   (target) :  0.402783E-02  ( 0.100000E-04)
 Abs. change in max-nonIBS-force   (target) :  0.716528E-03  ( 0.500000E-04)
 
++++++++++++++++++++++++++++++++++++++++++++++++++++++++++++++++++++++++++++++++
+ SCF iteration number :    6                                                  +
++++++++++++++++++++++++++++++++++++++++++++++++++++++++++++++++++++++++++++++++
 Total energy                               :       -75.85345396
 _______________________________________________________________
 Fermi energy                               :         0.54730408
 Kinetic energy                             :        75.67116965
 Coulomb energy                             :      -140.98048527
 Exchange energy                            :       -10.04042981
 Correlation energy                         :        -0.50370853
 
 DOS at Fermi energy (states/Ha/cell)       :         0.00000000
 
 Electron charges :
     core                                   :         4.00000000
     core leakage                           :         0.00134078
     valence                                :         8.00000000
     interstitial                           :         4.76928356
     charge in muffin-tin spheres :
                  atom     1     C          :         3.61535822
                  atom     2     C          :         3.61535822
     total charge in muffin-tins            :         7.23071644
     total charge                           :        12.00000000
 
 Estimated fundamental gap                  :         0.04950479
        valence-band maximum at    1      0.0000  0.0000  0.0000
     conduction-band minimum at   13      0.5000  0.5000  0.0000
 
 Wall time (seconds)                        :         9.71
 
 RMS change in effective potential (target) :  0.660821E-03  ( 0.100000E-05)
 Absolute change in total energy   (target) :  0.672231E-01  ( 0.100000E-05)
 Charge distance                   (target) :  0.127190E-02  ( 0.100000E-04)
 Abs. change in max-nonIBS-force   (target) :  0.166001E-03  ( 0.500000E-04)
 
++++++++++++++++++++++++++++++++++++++++++++++++++++++++++++++++++++++++++++++++
+ SCF iteration number :    7                                                  +
++++++++++++++++++++++++++++++++++++++++++++++++++++++++++++++++++++++++++++++++
 Total energy                               :       -75.85595223
 _______________________________________________________________
 Fermi energy                               :         0.54724766
 Kinetic energy                             :        75.66988809
 Coulomb energy                             :      -140.98158574
 Exchange energy                            :       -10.04055270
 Correlation energy                         :        -0.50370189
 
 DOS at Fermi energy (states/Ha/cell)       :         0.00000000
 
 Electron charges :
     core                                   :         4.00000000
     core leakage                           :         0.00134066
     valence                                :         8.00000000
     interstitial                           :         4.76905529
     charge in muffin-tin spheres :
                  atom     1     C          :         3.61547236
                  atom     2     C          :         3.61547236
     total charge in muffin-tins            :         7.23094471
     total charge                           :        12.00000000
 
 Estimated fundamental gap                  :         0.04953852
        valence-band maximum at    1      0.0000  0.0000  0.0000
     conduction-band minimum at   13      0.5000  0.5000  0.0000
 
 Wall time (seconds)                        :        11.29
 
 RMS change in effective potential (target) :  0.909916E-04  ( 0.100000E-05)
 Absolute change in total energy   (target) :  0.249827E-02  ( 0.100000E-05)
 Charge distance                   (target) :  0.444701E-04  ( 0.100000E-04)
 Abs. change in max-nonIBS-force   (target) :  0.270900E-04  ( 0.500000E-04)
 
++++++++++++++++++++++++++++++++++++++++++++++++++++++++++++++++++++++++++++++++
+ SCF iteration number :    8                                                  +
++++++++++++++++++++++++++++++++++++++++++++++++++++++++++++++++++++++++++++++++
 Total energy                               :       -75.85576219
 _______________________________________________________________
 Fermi energy                               :         0.54725118
 Kinetic energy                             :        75.66998187
 Coulomb energy                             :      -140.98149842
 Exchange energy                            :       -10.04054327
 Correlation energy                         :        -0.50370237
 
 DOS at Fermi energy (states/Ha/cell)       :         0.00000000
 
 Electron charges :
     core                                   :         4.00000000
     core leakage                           :         0.00134067
     valence                                :         8.00000000
     interstitial                           :         4.76907266
     charge in muffin-tin spheres :
                  atom     1     C          :         3.61546367
                  atom     2     C          :         3.61546367
     total charge in muffin-tins            :         7.23092734
     total charge                           :        12.00000000
 
 Estimated fundamental gap                  :         0.04953467
        valence-band maximum at    1      0.0000  0.0000  0.0000
     conduction-band minimum at   13      0.5000  0.5000  0.0000
 
 Wall time (seconds)                        :        12.44
 
 RMS change in effective potential (target) :  0.615477E-05  ( 0.100000E-05)
 Absolute change in total energy   (target) :  0.190041E-03  ( 0.100000E-05)
 Charge distance                   (target) :  0.392966E-05  ( 0.100000E-04)
 Abs. change in max-nonIBS-force   (target) :  0.137489E-04  ( 0.500000E-04)
 
++++++++++++++++++++++++++++++++++++++++++++++++++++++++++++++++++++++++++++++++
+ SCF iteration number :    9                                                  +
++++++++++++++++++++++++++++++++++++++++++++++++++++++++++++++++++++++++++++++++
 Total energy                               :       -75.85576757
 _______________________________________________________________
 Fermi energy                               :         0.54725123
 Kinetic energy                             :        75.66997922
 Coulomb energy                             :      -140.98150094
 Exchange energy                            :       -10.04054349
 Correlation energy                         :        -0.50370236
 
 DOS at Fermi energy (states/Ha/cell)       :         0.00000000
 
 Electron charges :
     core                                   :         4.00000000
     core leakage                           :         0.00134067
     valence                                :         8.00000000
     interstitial                           :         4.76907213
     charge in muffin-tin spheres :
                  atom     1     C          :         3.61546394
                  atom     2     C          :         3.61546394
     total charge in muffin-tins            :         7.23092787
     total charge                           :        12.00000000
 
 Estimated fundamental gap                  :         0.04953527
        valence-band maximum at    1      0.0000  0.0000  0.0000
     conduction-band minimum at   13      0.5000  0.5000  0.0000
 
 Wall time (seconds)                        :        13.91
 
 RMS change in effective potential (target) :  0.371839E-06  ( 0.100000E-05)
 Absolute change in total energy   (target) :  0.538209E-05  ( 0.100000E-05)
 Charge distance                   (target) :  0.773822E-06  ( 0.100000E-04)
 Abs. change in max-nonIBS-force   (target) :  0.731858E-05  ( 0.500000E-04)
 
++++++++++++++++++++++++++++++++++++++++++++++++++++++++++++++++++++++++++++++++
+ SCF iteration number :   10                                                  +
++++++++++++++++++++++++++++++++++++++++++++++++++++++++++++++++++++++++++++++++
 Total energy                               :       -75.85576713
 _______________________________________________________________
 Fermi energy                               :         0.54725123
 Kinetic energy                             :        75.66997957
 Coulomb energy                             :      -140.98150086
 Exchange energy                            :       -10.04054348
 Correlation energy                         :        -0.50370236
 
 DOS at Fermi energy (states/Ha/cell)       :         0.00000000
 
 Electron charges :
     core                                   :         4.00000000
     core leakage                           :         0.00134067
     valence                                :         8.00000000
     interstitial                           :         4.76907219
     charge in muffin-tin spheres :
                  atom     1     C          :         3.61546391
                  atom     2     C          :         3.61546391
     total charge in muffin-tins            :         7.23092781
     total charge                           :        12.00000000
 
 Estimated fundamental gap                  :         0.04953518
        valence-band maximum at    1      0.0000  0.0000  0.0000
     conduction-band minimum at   13      0.5000  0.5000  0.0000
 
 Wall time (seconds)                        :        15.10
 
 RMS change in effective potential (target) :  0.100618E-06  ( 0.100000E-05)
 Absolute change in total energy   (target) :  0.435882E-06  ( 0.100000E-05)
 Charge distance                   (target) :  0.112493E-06  ( 0.100000E-04)
 Abs. change in max-nonIBS-force   (target) :  0.131171E-05  ( 0.500000E-04)
 
++++++++++++++++++++++++++++++++++++++++++++++++++++++++++++++++++++++++++++++++
+ SCF iteration number :   11                                                  +
++++++++++++++++++++++++++++++++++++++++++++++++++++++++++++++++++++++++++++++++
 Total energy                               :       -75.85576720
 _______________________________________________________________
 Fermi energy                               :         0.54725123
 Kinetic energy                             :        75.66997953
 Coulomb energy                             :      -140.98150088
 Exchange energy                            :       -10.04054348
 Correlation energy                         :        -0.50370236
 
 DOS at Fermi energy (states/Ha/cell)       :         0.00000000
 
 Electron charges :
     core                                   :         4.00000000
     core leakage                           :         0.00134067
     valence                                :         8.00000000
     interstitial                           :         4.76907218
     charge in muffin-tin spheres :
                  atom     1     C          :         3.61546391
                  atom     2     C          :         3.61546391
     total charge in muffin-tins            :         7.23092782
     total charge                           :        12.00000000
 
 Estimated fundamental gap                  :         0.04953518
        valence-band maximum at    1      0.0000  0.0000  0.0000
     conduction-band minimum at   13      0.5000  0.5000  0.0000
 
 Wall time (seconds)                        :        16.31
 
 RMS change in effective potential (target) :  0.211724E-07  ( 0.100000E-05)
 Absolute change in total energy   (target) :  0.723507E-07  ( 0.100000E-05)
 Charge distance                   (target) :  0.256284E-08  ( 0.100000E-04)
 Abs. change in max-nonIBS-force   (target) :  0.100138E-07  ( 0.500000E-04)
                                                                                
++++++++++++++++++++++++++++++++++++++++++++++++++++++++++++++++++++++++++++++++
| Convergency criteria checked for the last 2 iterations                       +
| Convergence targets achieved. Performing final SCF iteration                 +
++++++++++++++++++++++++++++++++++++++++++++++++++++++++++++++++++++++++++++++++
 Total energy                               :       -75.85576721
 _______________________________________________________________
 Fermi energy                               :         0.54725123
 Kinetic energy                             :        75.66997952
 Coulomb energy                             :      -140.98150088
 Exchange energy                            :       -10.04054348
 Correlation energy                         :        -0.50370236
 
 DOS at Fermi energy (states/Ha/cell)       :         0.00000000
 
 Electron charges :
     core                                   :         4.00000000
     core leakage                           :         0.00134067
     valence                                :         8.00000000
     interstitial                           :         4.76907218
     charge in muffin-tin spheres :
                  atom     1     C          :         3.61546391
                  atom     2     C          :         3.61546391
     total charge in muffin-tins            :         7.23092782
     total charge                           :        12.00000000
 
 Estimated fundamental gap                  :         0.04953518
        valence-band maximum at    1      0.0000  0.0000  0.0000
     conduction-band minimum at   13      0.5000  0.5000  0.0000
 
++++++++++++++++++++++++++++++++++++++++++++++++++++++++++++++++++++++++++++++++
+ Self-consistent loop stopped                                                 +
++++++++++++++++++++++++++++++++++++++++++++++++++++++++++++++++++++++++++++++++
 STATE.OUT is written
 
--------------------------------------------------------------------------------
- Writing atomic positions and forces                                          -
--------------------------------------------------------------------------------
 
 Atomic positions (lattice) :
 atom     1   C  :     0.00000000    0.00000000    0.00000000
 atom     2   C  :     0.30000000    0.30000000    0.30000000
 
 Total atomic forces including IBS (cartesian) :
 atom     1   C  :     0.05121300    0.05121300    0.05121300
 atom     2   C  :    -0.05121300   -0.05121300   -0.05121300
 
 Atomic force components including IBS (cartesian) :
 atom     1   C  :     0.04992320    0.04992320    0.04992320   HF force
                 :     0.00145611    0.00145611    0.00145611   core correction
                 :    -0.00016631   -0.00016631   -0.00016631   IBS correction
 atom     2   C  :    -0.04992320   -0.04992320   -0.04992320   HF force
                 :    -0.00145611   -0.00145611   -0.00145611   core correction
                 :     0.00016631    0.00016631    0.00016631   IBS correction
 
********************************************************************************
* Groundstate module stopped                                                   *
********************************************************************************
 
********************************************************************************
* Structure-optimization module started                                        *
********************************************************************************
 Output level for this task is set to normal
 
 Maximum displacement tau_BFGS   is         :         5.0000
 Maximum displacement tau_newton is         :         0.2000
 
++++++++++++++++++++++++++++++++++++++++++++++++++++++++++++++++++++++++++++++++
+ Use L-BFGS-B method for optimizing atomic positions                          +
++++++++++++++++++++++++++++++++++++++++++++++++++++++++++++++++++++++++++++++++
 
--------------------------------------------------------------------------------
- Optimization step 0: Initialize optimization                                 -
--------------------------------------------------------------------------------
 Maximum force magnitude           (target) :         0.08870352  (  0.00020000)
 Total energy at this optimization step     :       -75.85576721
 
 Atomic positions at this step (lattice) :
 atom     1   C  :     0.00000000    0.00000000    0.00000000
 atom     2   C  :     0.30000000    0.30000000    0.30000000
 
 Total atomic forces including IBS (cartesian) :
 atom     1   C  :     0.05121300    0.05121300    0.05121300
 atom     2   C  :    -0.05121300   -0.05121300   -0.05121300
 
--------------------------------------------------------------------------------
- Optimization step    1    (method = bfgs)                                    -
--------------------------------------------------------------------------------
 Number of investigated configurations      :         1
 Number of total scf iterations             :        17
 Maximum force magnitude           (target) :         0.08603311  (  0.00020000)
 Total energy at this optimization step     :       -75.87145497
 
 Atomic positions at this step (lattice) :
 atom     1   C  :     0.00000000    0.00000000    0.00000000
 atom     2   C  :     0.28475577    0.28475577    0.28475577
 
 Total atomic forces including IBS (cartesian) :
 atom     1   C  :     0.04967124    0.04967124    0.04967124
 atom     2   C  :    -0.04967124   -0.04967124   -0.04967124
 
 Time spent in this optimization step       :        25.04 seconds
 
--------------------------------------------------------------------------------
- Optimization step    2    (method = bfgs)                                    -
--------------------------------------------------------------------------------
 Number of investigated configurations      :         2
 Number of total scf iterations             :        33
 Maximum force magnitude           (target) :         0.07598870  (  0.00020000)
 Total energy at this optimization step     :       -75.88797224
 
 Atomic positions at this step (lattice) :
 atom     1   C  :     0.00000000    0.00000000    0.00000000
 atom     2   C  :     0.23562246    0.23562246    0.23562246
 
 Total atomic forces including IBS (cartesian) :
 atom     1   C  :    -0.04387210   -0.04387210   -0.04387210
 atom     2   C  :     0.04387210    0.04387210    0.04387210
 
 Time spent in this optimization step       :        48.59 seconds
 
--------------------------------------------------------------------------------
- Optimization step    3    (method = bfgs)                                    -
--------------------------------------------------------------------------------
 Number of investigated configurations      :         1
 Number of total scf iterations             :        13
 Maximum force magnitude           (target) :         0.03522301  (  0.00020000)
 Total energy at this optimization step     :       -75.89218731
 
 Atomic positions at this step (lattice) :
 atom     1   C  :     0.00000000    0.00000000    0.00000000
 atom     2   C  :     0.25866612    0.25866612    0.25866612
 
 Total atomic forces including IBS (cartesian) :
 atom     1   C  :     0.02033602    0.02033602    0.02033602
 atom     2   C  :    -0.02033602   -0.02033602   -0.02033602
 
 Time spent in this optimization step       :        18.64 seconds
 
--------------------------------------------------------------------------------
- Optimization step    4    (method = bfgs)                                    -
--------------------------------------------------------------------------------
 Number of investigated configurations      :         1
 Number of total scf iterations             :        13
 Maximum force magnitude           (target) :         0.00608386  (  0.00020000)
 Total energy at this optimization step     :       -75.89398562
 
 Atomic positions at this step (lattice) :
 atom     1   C  :     0.00000000    0.00000000    0.00000000
 atom     2   C  :     0.25136772    0.25136772    0.25136772
 
 Total atomic forces including IBS (cartesian) :
 atom     1   C  :     0.00351252    0.00351252    0.00351252
 atom     2   C  :    -0.00351252   -0.00351252   -0.00351252
 
 Time spent in this optimization step       :        19.04 seconds
 
--------------------------------------------------------------------------------
- Optimization step    5    (method = bfgs)                                    -
--------------------------------------------------------------------------------
 Number of investigated configurations      :         1
 Number of total scf iterations             :        11
 Maximum force magnitude           (target) :         0.00071575  (  0.00020000)
 Total energy at this optimization step     :       -75.89403409
 
 Atomic positions at this step (lattice) :
 atom     1   C  :     0.00000000    0.00000000    0.00000000
 atom     2   C  :     0.24984392    0.24984392    0.24984392
 
 Total atomic forces including IBS (cartesian) :
 atom     1   C  :    -0.00041324   -0.00041324   -0.00041324
 atom     2   C  :     0.00041324    0.00041324    0.00041324
 
 Time spent in this optimization step       :        16.54 seconds
 
--------------------------------------------------------------------------------
- Optimization step    6    (method = bfgs)                                    -
--------------------------------------------------------------------------------
 Number of investigated configurations      :         1
 Number of total scf iterations             :        10
 Maximum force magnitude           (target) :         0.00001160  (  0.00020000)
 Total energy at this optimization step     :       -75.89403470
 
 Atomic positions at this step (lattice) :
 atom     1   C  :     0.00000000    0.00000000    0.00000000
 atom     2   C  :     0.25000432    0.25000432    0.25000432
 
 Total atomic forces including IBS (cartesian) :
 atom     1   C  :     0.00000670    0.00000670    0.00000670
 atom     2   C  :    -0.00000670   -0.00000670   -0.00000670
 
 Time spent in this optimization step       :        15.23 seconds
 
++++++++++++++++++++++++++++++++++++++++++++++++++++++++++++++++++++++++++++++++
+ Force convergence target achieved                                            +
++++++++++++++++++++++++++++++++++++++++++++++++++++++++++++++++++++++++++++++++
 Total energy                               :       -75.89403470
 _______________________________________________________________
 Fermi energy                               :         0.52725499
 Kinetic energy                             :        75.56130973
 Coulomb energy                             :      -140.91723442
 Exchange energy                            :       -10.03495448
 Correlation energy                         :        -0.50315553
 
 DOS at Fermi energy (states/Ha/cell)       :         0.00000000
 
 Electron charges :
     core                                   :         4.00000000
     core leakage                           :         0.00133618
     valence                                :         8.00000000
     interstitial                           :         4.80775128
     charge in muffin-tin spheres :
                  atom     1     C          :         3.59612436
                  atom     2     C          :         3.59612436
     total charge in muffin-tins            :         7.19224872
     total charge                           :        12.00000000
 
 Optimized atomic positions (lattice) :
 atom     1   C  :     0.00000000    0.00000000    0.00000000
 atom     2   C  :     0.25000432    0.25000432    0.25000432
 
 Total atomic forces including IBS (cartesian) :
 atom     1   C  :     0.00000670    0.00000670    0.00000670
 atom     2   C  :    -0.00000670   -0.00000670   -0.00000670
 
 Atomic force components including IBS (cartesian) :
 atom     1   C  :     0.00000033    0.00000033    0.00000033   HF force
                 :     0.00000220    0.00000220    0.00000220   core correction
                 :     0.00000417    0.00000417    0.00000417   IBS correction
 atom     2   C  :    -0.00000033   -0.00000033   -0.00000033   HF force
                 :    -0.00000220   -0.00000220   -0.00000220   core correction
                 :    -0.00000417   -0.00000417   -0.00000417   IBS correction
 
********************************************************************************
* Structure-optimization module stopped                                        *
********************************************************************************
 
 Total time spent (seconds)                 :       161.46
================================================================================
| EXCITING NITROGEN-13 stopped                                                 =
================================================================================
